#LEMMI_dm:v1.0|gtdb
toolname	rank	sample	precision	recall	threshold
kraken_212_lemmi	family	ci_prok_gtdb-c001	0	1.0	0
kraken_212_lemmi	family	ci_prok_gtdb-c001	1.0	1.0	0
kraken_212_lemmi	family	ci_prok_gtdb-c001	1	0	0
kraken_212_lemmi	genus	ci_prok_gtdb-c001	0	1.0	0
kraken_212_lemmi	genus	ci_prok_gtdb-c001	1.0	1.0	0
kraken_212_lemmi	genus	ci_prok_gtdb-c001	1	0	0
kraken_212_lemmi	species	ci_prok_gtdb-c001	0	1.0	0
kraken_212_lemmi	species	ci_prok_gtdb-c001	1.0	1.0	0
kraken_212_lemmi	species	ci_prok_gtdb-c001	1	0	0
