#LEMMI_dm:v1.0
toolname	sample	rank	value
kraken_212_lemmi	ci_prok_gtdb-e001	family	0
kraken_212_lemmi	ci_prok_gtdb-e001	genus	0
kraken_212_lemmi	ci_prok_gtdb-e001	species	0
kraken_212_lemmi	ci_prok_gtdb	family	0.0
kraken_212_lemmi	ci_prok_gtdb	genus	0.0
kraken_212_lemmi	ci_prok_gtdb	species	0.0
